MyLabJournal - Difference-in-Differences
…
library(ggthemr)
library(dplyr)
ggthemr("flat")
rm(list = ls())

# Load data
data <- readRDS("~/GitHub/cdsba-lucaspuebla93/Causal_Data_Science_Data/hospdd.rds")
print(data)

#> # A tibble: 7,368 × 5
#>    hospital frequency month procedure satis
#>       <dbl> <int>     <int> <dbl>     <dbl>
#>  1        1 3         7     1          4.11
#>  2        1 2         3     0          3.32
#>  3        1 4         2     0          3.41
#>  4        1 2         4     1          3.00
#>  5        1 1         3     0          3.11
#>  6        1 1         7     1          2.88
#>  7        1 2         4     1          4.41
#>  8        1 4         1     0          2.90
#>  9        1 2         3     0          3.05
#> 10        1 2         1     0          2.44
#> # ℹ 7,358 more rows
…
