MyLabJournal - Regression Discontinuity
…
library(rdd)

#> Loading required package: Formula

ggthemr("flat")
rm(list = ls())

# Load data
data <- readRDS("~/GitHub/cdsba-lucaspuebla93/Causal_Data_Science_Data/coupon.rds")
print(data)

#> # A tibble: 5,000 × 4
#>    days_since_last days_since_last_centered coupon purchase_after
#>              <dbl>                    <dbl> <lgl>           <dbl>
#>  1            82                      22    TRUE            22.8 
#>  2            39                     -21    FALSE           11.6 
#>  3             7.2                   -52.8  FALSE           16.0 
#>  4           116.                     55.6  TRUE            20.5 
#>  5            17                     -43    FALSE            8.90
#>  6            42.8                   -17.2  FALSE            6.72
#>  7            62.2                     2.20 TRUE            22.7 
#>  8            55.7                    -4.30 FALSE            9.74
#>  9            39.7                   -20.3  FALSE           12.4 
#> 10            53.5                    -6.5  FALSE            6.45
#> # ℹ 4,990 more rows
…
The estimated treatment effects and coefficients (related to the running variable and the coupon) appear to be robust and consistent, showing little sensitivity to changes in bandwidth.

2 Assignment 2

# Load data
data <- readRDS("~/GitHub/cdsba-lucaspuebla93/Causal_Data_Science_Data/shipping.rds")
print(data)

#> # A tibble: 6,666 × 1
#>    purchase_amount
#>              <dbl>
#>  1           13.1 
#>  2           37.1 
#>  3           11.3 
#>  4            9.45
#>  5           53.2 
#>  6           20.5 
#>  7            4.53
#>  8           19.4 
#>  9           31.8 
#> 10            1.81
#> # ℹ 6,656 more rows
…
