MyLabJournal - Randomized Controlled Trials
…
library(ggthemr)
ggthemr("flat")
rm(list = ls())

# Load data
data <- readRDS("~/GitHub/cdsba-lucaspuebla93/Causal_Data_Science_Data/abtest_online.rds")
print(data)

#> # A tibble: 1,000 × 6
#>    ip              chatbot previous_visit mobile_device purchase purchase_amount
#>    <chr>           <lgl>            <dbl> <lgl>            <dbl>           <dbl>
#>  1 161.88.211.70   TRUE                 0 FALSE                0             0  
#>  2 239.86.201.0    TRUE                 1 FALSE                1            39.5
#>  3 35.90.22.130    TRUE                 1 FALSE                0             0  
#>  4 219.176.193.3   FALSE                4 TRUE                 0             0  
#>  5 247.85.168.16   TRUE                 1 FALSE                0             0  
#>  6 120.221.249.244 TRUE                 2 FALSE                0             0  
#>  7 90.171.211.22   TRUE                 1 TRUE                 1            47.5
#>  8 52.225.227.74   TRUE                 1 TRUE                 1            19.8
#>  9 223.64.45.225   FALSE                1 TRUE                 0             0  
#> 10 85.209.250.31   FALSE                0 FALSE                0             0  
#> # ℹ 990 more rows
…
