MyLabJournal - Matching and Subclassification
…
library(ggthemr)
library(MatchIt)
ggthemr("flat")
rm(list = ls())

# Load data
data <- readRDS("~/GitHub/cdsba-lucaspuebla93/Causal_Data_Science_Data/membership.rds")
print(data)

#> # A tibble: 10,000 × 5
#>      age   sex pre_avg_purch  card avg_purch
#>    <dbl> <int>         <dbl> <int>     <dbl>
#>  1  31.3     1          61.1     0      70.8
#>  2  40.7     1          43.0     1      51.4
#>  3  23.2     1          18.0     1      26.0
#>  4  65.3     0          82.0     1     124. 
#>  5  27.2     0          61.4     0      45.1
#>  6  52.4     1          90.3     0     113. 
#>  7  39.5     0          71.0     1      88.6
#>  8  26.5     1          65.6     0      40.3
#>  9  28.4     1          50.2     0      40.3
#> 10  34.7     1          25.1     1      15.1
#> # ℹ 9,990 more rows
…
